{
	"info": {
		"_postman_id": "53c76ddb-0098-4166-935e-b43076bf8057",
		"name": "LibraryManager",
		"schema": "https://schema.getpostman.com/json/collection/v2.1.0/collection.json"
	},
	"item": [
		{
			"name": "http://localhost:8080/library/addBooks",
			"request": {
				"method": "POST",
				"header": [],
				"body": {
					"mode": "raw",
					"raw": "{\r\n    \"isbnNumber\":\"978-1-60309-047-6\",\r\n    \"bookName\":\"Alec: The Years Have Pants\",\r\n    \"authorName\":\"Eddie Campbell\"\r\n}",
					"options": {
						"raw": {
							"language": "json"
						}
					}
				},
				"url": {
					"raw": "http://localhost:8080/library/addBooks",
					"protocol": "http",
					"host": [
						"localhost"
					],
					"port": "8080",
					"path": [
						"library",
						"addBooks"
					]
				}
			},
			"response": []
		},
		{
			"name": "http://localhost:8080/library/listAll",
			"request": {
				"method": "GET",
				"header": [],
				"url": {
					"raw": "http://localhost:8080/library/listAll",
					"protocol": "http",
					"host": [
						"localhost"
					],
					"port": "8080",
					"path": [
						"library",
						"listAll"
					]
				}
			},
			"response": []
		},
		{
			"name": "http://localhost:8080/library/checkoutBooks",
			"request": {
				"method": "POST",
				"header": [],
				"body": {
					"mode": "raw",
					"raw": "{\r\n    \"userName\":\"Himanshu Singh\",\r\n    \"phoneNumber\":\"9874563210\",\r\n    \"isbnNumber\":\"978-1-60309-025-4\",\r\n    \"checkoutDate\":\"2021-02-26\"\r\n\r\n}",
					"options": {
						"raw": {
							"language": "json"
						}
					}
				},
				"url": {
					"raw": "http://localhost:8080/library/checkoutBooks",
					"protocol": "http",
					"host": [
						"localhost"
					],
					"port": "8080",
					"path": [
						"library",
						"checkoutBooks"
					]
				}
			},
			"response": []
		},
		{
			"name": "http://localhost:8080/library/extendDayOfReturn",
			"request": {
				"method": "POST",
				"header": [],
				"body": {
					"mode": "raw",
					"raw": "{\r\n    \"extendedDay\":3,\r\n    \"isbnNumber\":\"978-1-60309-025-4\"\r\n}",
					"options": {
						"raw": {
							"language": "json"
						}
					}
				},
				"url": {
					"raw": "http://localhost:8080/library/extendDayOfReturn",
					"protocol": "http",
					"host": [
						"localhost"
					],
					"port": "8080",
					"path": [
						"library",
						"extendDayOfReturn"
					]
				}
			},
			"response": []
		},
		{
			"name": "http://localhost:8080/library/searchBooks?bookName=Alec: The Years Have Pants",
			"request": {
				"method": "GET",
				"header": [],
				"url": {
					"raw": "http://localhost:8080/library/searchBooks?bookName=Alec: The Years Have Pants",
					"protocol": "http",
					"host": [
						"localhost"
					],
					"port": "8080",
					"path": [
						"library",
						"searchBooks"
					],
					"query": [
						{
							"key": "bookName",
							"value": "Alec: The Years Have Pants"
						}
					]
				}
			},
			"response": []
		}
	]
}